…
How many aisles are there, and which aisles are the most items ordered
from?

``` r
instacart %>% 
  count(aisle,aisle_id) %>% 
  arrange(desc(n))
```

    ## # A tibble: 134 × 3
    ##    aisle                         aisle_id      n
    ##    <chr>                            <int>  <int>
    ##  1 fresh vegetables                    83 150609
    ##  2 fresh fruits                        24 150473
    ##  3 packaged vegetables fruits         123  78493
    ##  4 yogurt                             120  55240
    ##  5 packaged cheese                     21  41699
    ##  6 water seltzer sparkling water      115  36617
    ##  7 milk                                84  32644
    ##  8 chips pretzels                     107  31269
    ##  9 soy lactosefree                     91  26240
    ## 10 bread                              112  23635
    ## # … with 124 more rows
…
    state = locationabbr,
    location = locationdesc
  ) %>% 
  filter(topic%in%"Overall Health",
         response%in% c("Excellent","Very good","Good","Fair","Poor")) %>% 
  relocate(topic,response) %>% 
  mutate(
    response = factor(response),
    response = forcats::fct_relevel(response,c("Poor","Fair","Good","Very good","Excellent"))
  ) %>% 
  arrange(response)
mydata_df
```

    ## # A tibble: 10,625 × 23
    ##    topic          response  year state location class question sample_size data_value
    ##    <chr>          <fct>    <int> <chr> <chr>    <chr> <chr>          <int>      <dbl>
    ##  1 Overall Health Poor      2010 AL    AL - Je… Heal… How is …          45        5.5
    ##  2 Overall Health Poor      2010 AL    AL - Mo… Heal… How is …          66        6.4
    ##  3 Overall Health Poor      2010 AL    AL - Tu… Heal… How is …          35        4.2
    ##  4 Overall Health Poor      2010 AZ    AZ - Ma… Heal… How is …          62        3.5
    ##  5 Overall Health Poor      2010 AZ    AZ - Pi… Heal… How is …          49        5.7
    ##  6 Overall Health Poor      2010 AZ    AZ - Pi… Heal… How is …          30        4  
    ##  7 Overall Health Poor      2010 AR    AR - Be… Heal… How is …          21        3  
    ##  8 Overall Health Poor      2010 AR    AR - Pu… Heal… How is …          36        3.8
    ##  9 Overall Health Poor      2010 AR    AR - Wa… Heal… How is …          16        2.4
    ## 10 Overall Health Poor      2010 CA    CA - Al… Heal… How is …          23        2.4
    ## # … with 10,615 more rows, and 14 more variables: confidence_limit_low <dbl>,
    ## #   confidence_limit_high <dbl>, display_order <int>, data_value_unit <chr>,
    ## #   data_value_type <chr>, data_value_footnote_symbol <chr>,
    ## #   data_value_footnote <chr>, data_source <chr>, class_id <chr>,
    ## #   topic_id <chr>, location_id <chr>, question_id <chr>, respid <chr>,
    ## #   geo_location <chr>
…
